include "robots/sero.inc"


resolution 0.02
interval_sim 50  # simulation timestep in milliseconds
threads 2

define floorplan model
(
  # sombre, sensible, artistic
  color "gray30"

  # most maps will need a bounding box
  boundary 1

  gui_nose 0
  gui_grid 0
  gui_outline 0
  gripper_return 0
  fiducial_return 0
  laser_return 1
)

window
(
  size [ 600.0 700.0 ]
  center [ 18.0 -136.0 ]
  rotate [ 0.0 0.0 ]
  scale 20
)

# floorplan
# (
#   name "wonik_1st_floor"
#   bitmap "../maps/test_f_area.png"
#   size [ 200.0 200.0 2.0 ]
#   pose [ 0.0 0.0 0.0 0.0 ] 
# )
# 
# diff_drive_robot
# ( 
#   pose [ 6.0 -8.0 0.0 0.0 ]
#   name "robot"
# )


floorplan
(
  name "songdo_convensia_1st"
  bitmap "../maps/songdo_convensia_1st.png"
  size [ 300.0 400.0 2.0 ]
  pose [ 0.0 0.0 0.0 0.0 ] 
)

diff_drive_robot
( 
  pose [ 18.0 -140.0 0.0 0.0 ]
  name "robot"
)


#
# adding blocks
#  - http://wiki.ros.org/turtlebot_stage/Tutorials/indigo/Customizing%20the%20Stage%20Simulator
#

define static_obstacle model
(
  size [0.500 0.500 1.500]
  gui_nose 0
)

define charging_station model
(
  size [0.400 0.600 1.500]
  gui_nose 0
)

#
# static obstacles
#
static_obstacle( pose [ 15 -130.0 0.000 0.000 ] color "green")  

charging_station( pose [ 15 -131.0 0.000 0.000 ] color "blue")  

#
# dynamic obstacles 
#

# wanderer(pose [ 8.0  -7.0   0.0 0.0 ] color "green")  
# wanderer(pose [ 8.0  -8.0   0.0 0.0 ] color "green") 

wanderer(pose [ 15.0  -134.0   0.0 0.0 ] color "green")  
wanderer(pose [ 15.0  -136.0   0.0 0.0 ] color "green") 


# wanderer(pose [ 2.0  0.0   0.0 0.0 ] color "green")  
# wanderer(pose [ 2.0 -1.0   0.0 0.0 ] color "green")  
# wanderer(pose [ 2.0 -2.0   0.0 0.0 ] color "green")  
# 
# wanderer(pose [ 3.0  2.0   0.0 0.0 ] color "green")  
# wanderer(pose [ 3.0  1.0   0.0 0.0 ] color "green") 
# wanderer(pose [ 3.0  0.0   0.0 0.0 ] color "green")  
# wanderer(pose [ 3.0 -1.0   0.0 0.0 ] color "green")  
# wanderer(pose [ 3.0 -2.0   0.0 0.0 ] color "green")  
# 
# wanderer(pose [ 4.0  2.0   0.0 0.0 ] color "green")  
# wanderer(pose [ 4.0  1.0   0.0 0.0 ] color "green") 
# wanderer(pose [ 4.0  0.0   0.0 0.0 ] color "green")  
# wanderer(pose [ 4.0 -1.0   0.0 0.0 ] color "green")  
# wanderer(pose [ 4.0 -2.0   0.0 0.0 ] color "green")  
# 
# wanderer(pose [ 5.0  2.0   0.0 0.0 ] color "green")  
# wanderer(pose [ 5.0  1.0   0.0 0.0 ] color "green") 
# wanderer(pose [ 5.0  0.0   0.0 0.0 ] color "green")  
# wanderer(pose [ 5.0 -1.0   0.0 0.0 ] color "green")  
# wanderer(pose [ 5.0 -2.0   0.0 0.0 ] color "green")  
# 
# wanderer(pose [ 6.0  2.0   0.0 0.0 ] color "green")  
# wanderer(pose [ 6.0  1.0   0.0 0.0 ] color "green") 
# wanderer(pose [ 6.0  0.0   0.0 0.0 ] color "green")  
# wanderer(pose [ 6.0 -1.0   0.0 0.0 ] color "green")  
# wanderer(pose [ 6.0 -2.0   0.0 0.0 ] color "green")  
# 
# wanderer(pose [ 7.0  2.0   0.0 0.0 ] color "green")  
# wanderer(pose [ 7.0  1.0   0.0 0.0 ] color "green") 
# wanderer(pose [ 7.0  0.0   0.0 0.0 ] color "green")  
# wanderer(pose [ 7.0 -1.0   0.0 0.0 ] color "green")  
# wanderer(pose [ 7.0 -2.0   0.0 0.0 ] color "green")  
# 



